[2014-04-07 02:08:20.655] [INFO] normal - 127.0.0.1 - - "GET /list HTTP/1.1" 404 - "" "Mozilla/5.0 (Windows NT 6.1) AppleWebKit/537.36 (KHTML, like Gecko) Chrome/30.0.1599.101 Safari/537.36"
[2014-04-07 02:08:25.375] [INFO] normal - 127.0.0.1 - - "GET /admin HTTP/1.1" 404 - "" "Mozilla/5.0 (Windows NT 6.1) AppleWebKit/537.36 (KHTML, like Gecko) Chrome/30.0.1599.101 Safari/537.36"
[2014-04-07 13:34:03.683] [INFO] normal - This is an index page! -- log4js
[2014-04-07 13:34:19.086] [INFO] normal - 127.0.0.1 - - "GET /admin HTTP/1.1" 404 - "" "Mozilla/5.0 (Windows NT 6.1) AppleWebKit/537.36 (KHTML, like Gecko) Chrome/30.0.1599.101 Safari/537.36"
[2014-04-07 13:34:50.734] [INFO] normal - 127.0.0.1 - - "GET / HTTP/1.1" 404 - "" "Mozilla/5.0 (Windows NT 6.1) AppleWebKit/537.36 (KHTML, like Gecko) Chrome/30.0.1599.101 Safari/537.36"
[2014-04-07 13:36:07.605] [INFO] normal - This is an index page! -- log4js
[2014-04-07 13:36:07.631] [INFO] normal - This is configure.
[2014-04-07 13:36:24.926] [INFO] normal - 127.0.0.1 - - "GET / HTTP/1.1" 404 - "" "Mozilla/5.0 (Windows NT 6.1) AppleWebKit/537.36 (KHTML, like Gecko) Chrome/30.0.1599.101 Safari/537.36"
