[2014-04-07 13:46:23.098] [INFO] normal - This is an index page! -- log4js
[2014-04-07 13:46:23.104] [INFO] normal - This is configure.
[2014-04-07 13:46:28.419] [INFO] normal - 127.0.0.1 - - "GET / HTTP/1.1" 404 - "" "Mozilla/5.0 (Windows NT 6.1) AppleWebKit/537.36 (KHTML, like Gecko) Chrome/30.0.1599.101 Safari/537.36"
[2014-04-07 13:47:50.859] [INFO] normal - This is an index page! -- log4js
[2014-04-07 13:47:50.864] [INFO] normal - This is configure.
[2014-04-07 13:47:56.264] [INFO] normal - 127.0.0.1 - - "GET / HTTP/1.1" 200 34 "" "Mozilla/5.0 (Windows NT 6.1) AppleWebKit/537.36 (KHTML, like Gecko) Chrome/30.0.1599.101 Safari/537.36"
[2014-04-07 13:48:55.801] [INFO] normal - This is an index page! -- log4js
[2014-04-07 13:48:55.808] [INFO] normal - This is configure.
[2014-04-07 13:49:02.167] [INFO] normal - 127.0.0.1 - - "GET / HTTP/1.1" 200 34 "" "Mozilla/5.0 (Windows NT 6.1) AppleWebKit/537.36 (KHTML, like Gecko) Chrome/30.0.1599.101 Safari/537.36"
[2014-04-07 13:49:05.324] [INFO] normal - 127.0.0.1 - - "GET /admin HTTP/1.1" 200 34 "" "Mozilla/5.0 (Windows NT 6.1) AppleWebKit/537.36 (KHTML, like Gecko) Chrome/30.0.1599.101 Safari/537.36"
