[2014-04-07 14:00:52.680] [INFO] normal - This is an index page! -- log4js
[2014-04-07 14:00:52.693] [INFO] normal - This is configure.
[2014-04-07 14:02:50.299] [INFO] normal - This is an index page! -- log4js
[2014-04-07 14:02:50.309] [INFO] normal - This is configure.
[2014-04-07 14:03:02.988] [INFO] normal - This is an index page! -- log4js
[2014-04-07 14:03:02.995] [INFO] normal - This is configure.
[2014-04-07 14:03:19.330] [INFO] normal - 127.0.0.1 - - "GET / HTTP/1.1" 200 34 "" "Mozilla/5.0 (Windows NT 6.1) AppleWebKit/537.36 (KHTML, like Gecko) Chrome/30.0.1599.101 Safari/537.36"
[2014-04-07 14:05:58.193] [INFO] normal - This is an index page! -- log4js
[2014-04-07 14:05:58.196] [INFO] normal - This is configure.
[2014-04-07 14:06:02.050] [INFO] normal - 127.0.0.1 - - "GET / HTTP/1.1" 200 34 "" "Mozilla/5.0 (Windows NT 6.1) AppleWebKit/537.36 (KHTML, like Gecko) Chrome/30.0.1599.101 Safari/537.36"
[2014-04-07 14:07:36.700] [INFO] normal - This is an index page! -- log4js
[2014-04-07 14:07:36.703] [INFO] normal - This is configure.
