[2014-04-07 13:49:08.773] [INFO] normal - 127.0.0.1 - - "GET /admin HTTP/1.1" 200 34 "" "Mozilla/5.0 (Windows NT 6.1) AppleWebKit/537.36 (KHTML, like Gecko) Chrome/30.0.1599.101 Safari/537.36"
[2014-04-07 13:53:01.512] [INFO] normal - This is an index page! -- log4js
[2014-04-07 13:53:01.519] [INFO] normal - This is configure.
[2014-04-07 13:53:05.641] [INFO] normal - 127.0.0.1 - - "GET /admin HTTP/1.1" 200 75 "" "Mozilla/5.0 (Windows NT 6.1) AppleWebKit/537.36 (KHTML, like Gecko) Chrome/30.0.1599.101 Safari/537.36"
[2014-04-07 13:56:24.852] [INFO] normal - This is an index page! -- log4js
[2014-04-07 13:56:24.859] [INFO] normal - This is configure.
[2014-04-07 13:56:29.873] [INFO] normal - 127.0.0.1 - - "GET /list HTTP/1.1" 404 - "" "Mozilla/5.0 (Windows NT 6.1) AppleWebKit/537.36 (KHTML, like Gecko) Chrome/30.0.1599.101 Safari/537.36"
[2014-04-07 14:00:33.833] [INFO] normal - 127.0.0.1 - - "GET /admin HTTP/1.1" 200 75 "" "Mozilla/5.0 (Windows NT 6.1) AppleWebKit/537.36 (KHTML, like Gecko) Chrome/30.0.1599.101 Safari/537.36"
